<!--?xml version="1.0" encoding="UTF-8"?-->
<svg xmlns="http://www.w3.org/2000/svg" xmlns:xlink="http://www.w3.org/1999/xlink" width="600"
    height="400" viewBox="-300.0 -200.0 600 400">
    <defs>
    </defs>
    <path d="M-200,0 L200.0,-0.0" stroke-width="10" stroke="red" fill="white"></path>
    <path d="M-190,-10 L190.0,-10.0" stroke-width="10" stroke="orange" fill="white"></path>
    <path d="M-180,-20 L180.0,-20.0" stroke-width="10" stroke="yellow" fill="white"></path>
    <path d="M-170,-30 L170.0,-30.0" stroke-width="10" stroke="lightgreen" fill="white"></path>
    <path d="M-160,-40 L160.0,-40.0" stroke-width="10" stroke="skyblue" fill="white"></path>
    <path d="M-150,-50 L150.0,-50.0" stroke-width="10" stroke="purple" fill="white"></path>
    <path d="M-140,-60 L140.0,-60.0" stroke-width="10" stroke="pink" fill="white"></path>
    <path d="M-130,-70 L130.0,-70.0" stroke-width="10" stroke="black" fill="white"></path>
</svg>