<!--?xml version="1.0" encoding="UTF-8"?-->
<svg xmlns="http://www.w3.org/2000/svg" xmlns:xlink="http://www.w3.org/1999/xlink" width="700"
    height="700" viewBox="-350.0 -350.0 700 700">
    <defs>
    </defs>
    <rect x="-350" y="-350" width="700" height="700" fill="black" />
    <path d="M0,0 L150.00000000000003,-259.8076211353316" stroke-width="1" stroke="white"
        fill="white"></path>
    <path d="M0,0 L-149.99999999999994,-259.8076211353316" stroke-width="1" stroke="white"
        fill="white"></path>
    <path d="M0,0 L-300.0,-3.6739403974420595e-14" stroke-width="1" stroke="white" fill="white">
    </path>
    <path d="M0,0 L-150.00000000000014,259.80762113533154" stroke-width="1" stroke="white"
        fill="white"></path>
    <path d="M0,0 L150.00000000000003,259.8076211353316" stroke-width="1" stroke="white"
        fill="white"></path>
    <path d="M0,0 L300.0,7.347880794884119e-14" stroke-width="1" stroke="white" fill="white"></path>
    <path d="M0,0 L60.0,1.469576158976824e-14" stroke-width="1" stroke="white" fill="white"></path>
    <path d="M60.0,1.469576158976824e-14 L30.000000000000046,-51.961524227066334" stroke-width="1"
        stroke="white" fill="white"></path>
    <path d="M30.000000000000046,-51.961524227066334 L-29.999999999999954,-51.961524227066356"
        stroke-width="1" stroke="white" fill="white"></path>
    <path d="M-29.999999999999954,-51.961524227066356 L-59.99999999999994,-3.552713678800501e-14"
        stroke-width="1" stroke="white" fill="white"></path>
    <path d="M-59.99999999999994,-3.552713678800501e-14 L-29.999999999999996,51.96152422706631"
        stroke-width="1" stroke="white" fill="white"></path>
    <path d="M-29.999999999999996,51.96152422706631 L30.000000000000004,51.96152422706634"
        stroke-width="1" stroke="white" fill="white"></path>
    <path d="M30.000000000000004,51.96152422706634 L60.0,2.1316282072803006e-14" stroke-width="1"
        stroke="white" fill="white"></path>
    <path d="M0,0 L59.99999999999999,-103.92304845413264" stroke-width="1" stroke="white"
        fill="white"></path>
    <path d="M59.99999999999999,-103.92304845413264 L-60.00000000000001,-103.92304845413271"
        stroke-width="1" stroke="white" fill="white"></path>
    <path d="M-60.00000000000001,-103.92304845413271 L-120.0000000000002,-1.8474111129762605e-13"
        stroke-width="1" stroke="white" fill="white"></path>
    <path d="M-120.0000000000002,-1.8474111129762605e-13 L-60.00000000000014,103.92304845413243"
        stroke-width="1" stroke="white" fill="white"></path>
    <path d="M-60.00000000000014,103.92304845413243 L59.99999999999986,103.92304845413251"
        stroke-width="1" stroke="white" fill="white"></path>
    <path d="M59.99999999999986,103.92304845413251 L120.00000000000006,-1.4210854715202004e-14"
        stroke-width="1" stroke="white" fill="white"></path>
    <path d="M120.00000000000006,-1.4210854715202004e-14 L60.000000000000014,-103.92304845413263"
        stroke-width="1" stroke="white" fill="white"></path>
    <path d="M0,0 L-90.00000000000006,-155.88457268119893" stroke-width="1" stroke="white"
        fill="white"></path>
    <path d="M-90.00000000000006,-155.88457268119893 L-180.00000000000037,-1.7053025658242404e-13"
        stroke-width="1" stroke="white" fill="white"></path>
    <path d="M-180.00000000000037,-1.7053025658242404e-13 L-90.00000000000033,155.88457268119876"
        stroke-width="1" stroke="white" fill="white"></path>
    <path d="M-90.00000000000033,155.88457268119876 L89.99999999999967,155.88457268119893"
        stroke-width="1" stroke="white" fill="white"></path>
    <path d="M89.99999999999967,155.88457268119893 L180.0,1.9895196601282805e-13" stroke-width="1"
        stroke="white" fill="white"></path>
    <path d="M180.0,1.9895196601282805e-13 L89.99999999999999,-155.88457268119876" stroke-width="1"
        stroke="white" fill="white"></path>
    <path d="M89.99999999999999,-155.88457268119876 L-90.00000000000001,-155.88457268119896"
        stroke-width="1" stroke="white" fill="white"></path>
    <path d="M0,0 L-240.0,-2.645237086158283e-13" stroke-width="1" stroke="white" fill="white">
    </path>
    <path d="M-240.0,-2.645237086158283e-13 L-120.0,207.846096908265" stroke-width="1"
        stroke="white" fill="white"></path>
    <path d="M-120.0,207.846096908265 L120.0,207.84609690826528" stroke-width="1" stroke="white"
        fill="white"></path>
    <path d="M120.0,207.84609690826528 L240.0000000000005,3.126388037344441e-13" stroke-width="1"
        stroke="white" fill="white"></path>
    <path d="M240.0000000000005,3.126388037344441e-13 L120.00000000000126,-207.8460969082654"
        stroke-width="1" stroke="white" fill="white"></path>
    <path d="M120.00000000000126,-207.8460969082654 L-119.99999999999874,-207.84609690826485"
        stroke-width="1" stroke="white" fill="white"></path>
    <path d="M-119.99999999999874,-207.84609690826485 L-239.99999999999852,5.400124791776761e-13"
        stroke-width="1" stroke="white" fill="white"></path>
    <path d="M0,0 L-149.99999999999974,259.8076211353318" stroke-width="1" stroke="white"
        fill="white"></path>
    <path d="M-149.99999999999974,259.8076211353318 L150.00000000000026,259.8076211353322"
        stroke-width="1" stroke="white" fill="white"></path>
    <path d="M150.00000000000026,259.8076211353322 L300.00000000000097,1.0231815394945443e-12"
        stroke-width="1" stroke="white" fill="white"></path>
    <path d="M300.00000000000097,1.0231815394945443e-12 L150.000000000002,-259.80762113533115"
        stroke-width="1" stroke="white" fill="white"></path>
    <path d="M150.000000000002,-259.80762113533115 L-149.999999999998,-259.8076211353306"
        stroke-width="1" stroke="white" fill="white"></path>
    <path d="M-149.999999999998,-259.8076211353306 L-299.99999999999784,1.1368683772161603e-12"
        stroke-width="1" stroke="white" fill="white"></path>
    <path d="M-299.99999999999784,1.1368683772161603e-12 L-149.99999999999798,259.8076211353328"
        stroke-width="1" stroke="white" fill="white"></path>
</svg>