<!--?xml version="1.0" encoding="UTF-8"?-->
<svg xmlns="http://www.w3.org/2000/svg" xmlns:xlink="http://www.w3.org/1999/xlink" width="300"
    height="300" viewBox="-150.0 -150.0 300 300">
    <defs>
    </defs>
    <path d="M0,0 L-66.91306063588583,-74.31448254773943" stroke-width="1" stroke="blue"
        fill="white"></path>
    <path d="M-66.91306063588583,-74.31448254773943 L-97.81476007338058,20.79116908177592"
        stroke-width="1" stroke="blue" fill="white"></path>
    <path d="M-97.81476007338058,20.79116908177592 L-2.842170943040401e-14,-1.7763568394002505e-14"
        stroke-width="1" stroke="blue" fill="white"></path>
    <path d="M-2.842170943040401e-14,-1.7763568394002505e-14 L-80.90169943749476,-58.77852522924735"
        stroke-width="1" stroke="blue" fill="white"></path>
    <path d="M-80.90169943749476,-58.77852522924735 L-91.35454576426021,40.67366430757997"
        stroke-width="1" stroke="blue" fill="white"></path>
    <path d="M-91.35454576426021,40.67366430757997 L-1.2789769243681803e-13,-5.684341886080802e-14"
        stroke-width="1" stroke="blue" fill="white"></path>
    <path d="M-1.2789769243681803e-13,-5.684341886080802e-14 L-91.35454576426024,-40.67366430758002"
        stroke-width="1" stroke="blue" fill="white"></path>
    <path d="M-91.35454576426024,-40.67366430758002 L-80.90169943749507,58.77852522924733"
        stroke-width="1" stroke="blue" fill="white"></path>
    <path d="M-80.90169943749507,58.77852522924733 L-2.8421709430404007e-13,7.815970093361102e-14"
        stroke-width="1" stroke="blue" fill="white"></path>
    <path d="M-2.8421709430404007e-13,7.815970093361102e-14 L-97.81476007338081,-20.791169081776054"
        stroke-width="1" stroke="blue" fill="white"></path>
    <path d="M-97.81476007338081,-20.791169081776054 L-66.91306063588615,74.31448254773935"
        stroke-width="1" stroke="blue" fill="white"></path>
    <path d="M-66.91306063588615,74.31448254773935 L-3.552713678800501e-13,-8.526512829121202e-14"
        stroke-width="1" stroke="blue" fill="white"></path>
    <path
        d="M-3.552713678800501e-13,-8.526512829121202e-14 L-100.00000000000036,-1.954833402144738e-13"
        stroke-width="1" stroke="blue" fill="white"></path>
    <path d="M-100.00000000000036,-1.954833402144738e-13 L-50.000000000000355,86.60254037844366"
        stroke-width="1" stroke="blue" fill="white"></path>
    <path d="M-50.000000000000355,86.60254037844366 L-1.4210854715202004e-13,-7.105427357601002e-14"
        stroke-width="1" stroke="blue" fill="white"></path>
    <path d="M-1.4210854715202004e-13,-7.105427357601002e-14 L-97.81476007338078,20.7911690817755"
        stroke-width="1" stroke="blue" fill="white"></path>
    <path d="M-97.81476007338078,20.7911690817755 L-30.901699437494898,95.10565162951485"
        stroke-width="1" stroke="blue" fill="white"></path>
    <path d="M-30.901699437494898,95.10565162951485 L-7.105427357601002e-15,-4.547473508864641e-13"
        stroke-width="1" stroke="blue" fill="white"></path>
    <path d="M-7.105427357601002e-15,-4.547473508864641e-13 L-91.3545457642602,40.67366430757931"
        stroke-width="1" stroke="blue" fill="white"></path>
    <path d="M-91.3545457642602,40.67366430757931 L-10.45284632676534,99.45218953682647"
        stroke-width="1" stroke="blue" fill="white"></path>
    <path d="M-10.45284632676534,99.45218953682647 L6.572520305780927e-14,-8.668621376273222e-13"
        stroke-width="1" stroke="blue" fill="white"></path>
    <path d="M6.572520305780927e-14,-8.668621376273222e-13 L-80.90169943749477,58.77852522924629"
        stroke-width="1" stroke="blue" fill="white"></path>
    <path d="M-80.90169943749477,58.77852522924629 L10.452846326765155,99.45218953682671"
        stroke-width="1" stroke="blue" fill="white"></path>
    <path d="M10.452846326765155,99.45218953682671 L-2.2737367544323206e-13,-6.252776074688882e-13"
        stroke-width="1" stroke="blue" fill="white"></path>
    <path d="M-2.2737367544323206e-13,-6.252776074688882e-13 L-66.91306063588611,74.31448254773873"
        stroke-width="1" stroke="blue" fill="white"></path>
    <path d="M-66.91306063588611,74.31448254773873 L30.901699437494386,95.105651629515"
        stroke-width="1" stroke="blue" fill="white"></path>
    <path d="M30.901699437494386,95.105651629515 L-4.760636329592671e-13,-3.268496584496461e-13"
        stroke-width="1" stroke="blue" fill="white"></path>
    <path d="M-4.760636329592671e-13,-3.268496584496461e-13 L-50.000000000000476,86.60254037844354"
        stroke-width="1" stroke="blue" fill="white"></path>
    <path d="M-50.000000000000476,86.60254037844354 L49.999999999999524,86.60254037844378"
        stroke-width="1" stroke="blue" fill="white"></path>
    <path d="M49.999999999999524,86.60254037844378 L-5.684341886080802e-14,-3.268496584496461e-13"
        stroke-width="1" stroke="blue" fill="white"></path>
    <path d="M-5.684341886080802e-14,-3.268496584496461e-13 L-30.901699437495385,95.10565162951484"
        stroke-width="1" stroke="blue" fill="white"></path>
    <path d="M-30.901699437495385,95.10565162951484 L66.91306063588506,74.31448254773835"
        stroke-width="1" stroke="blue" fill="white"></path>
    <path d="M66.91306063588506,74.31448254773835 L-9.947598300641403e-13,-8.668621376273222e-13"
        stroke-width="1" stroke="blue" fill="white"></path>
    <path d="M-9.947598300641403e-13,-8.668621376273222e-13 L-10.452846326766156,99.45218953682648"
        stroke-width="1" stroke="blue" fill="white"></path>
    <path d="M-10.452846326766156,99.45218953682648 L80.90169943749396,58.77852522924652"
        stroke-width="1" stroke="blue" fill="white"></path>
    <path d="M80.90169943749396,58.77852522924652 L-6.110667527536862e-13,-1.0373923942097463e-12"
        stroke-width="1" stroke="blue" fill="white"></path>
    <path d="M-6.110667527536862e-13,-1.0373923942097463e-12 L10.452846326764307,99.45218953682634"
        stroke-width="1" stroke="blue" fill="white"></path>
    <path d="M10.452846326764307,99.45218953682634 L91.35454576425944,40.67366430757957"
        stroke-width="1" stroke="blue" fill="white"></path>
    <path d="M91.35454576425944,40.67366430757957 L-8.526512829121202e-13,7.105427357601002e-15"
        stroke-width="1" stroke="blue" fill="white"></path>
    <path d="M-8.526512829121202e-13,7.105427357601002e-15 L30.90169943749424,95.10565162951525"
        stroke-width="1" stroke="blue" fill="white"></path>
    <path d="M30.90169943749424,95.10565162951525 L97.81476007337997,20.791169081775735"
        stroke-width="1" stroke="blue" fill="white"></path>
    <path d="M97.81476007337997,20.791169081775735 L-5.684341886080801e-13,-3.126388037344441e-13"
        stroke-width="1" stroke="blue" fill="white"></path>
    <path d="M-5.684341886080801e-13,-3.126388037344441e-13 L49.99999999999922,86.60254037844366"
        stroke-width="1" stroke="blue" fill="white"></path>
    <path d="M49.99999999999922,86.60254037844366 L99.99999999999963,4.263256414560601e-14"
        stroke-width="1" stroke="blue" fill="white"></path>
    <path
        d="M99.99999999999963,4.263256414560601e-14 L-3.694822225952521e-13,-6.922793114701235e-13"
        stroke-width="1" stroke="blue" fill="white"></path>
    <path d="M-3.694822225952521e-13,-6.922793114701235e-13 L66.9130606358848,74.3144825477393"
        stroke-width="1" stroke="blue" fill="white"></path>
    <path d="M66.9130606358848,74.3144825477393 L97.81476007337925,-20.791169081776147"
        stroke-width="1" stroke="blue" fill="white"></path>
    <path
        d="M97.81476007337925,-20.791169081776147 L-1.2931877790833823e-12,-1.4566126083082054e-13"
        stroke-width="1" stroke="blue" fill="white"></path>
    <path d="M-1.2931877790833823e-12,-1.4566126083082054e-13 L80.90169943749342,58.77852522924721"
        stroke-width="1" stroke="blue" fill="white"></path>
    <path d="M80.90169943749342,58.77852522924721 L91.35454576425907,-40.6736643075801"
        stroke-width="1" stroke="blue" fill="white"></path>
    <path d="M91.35454576425907,-40.6736643075801 L-1.2363443602225743e-12,-5.755396159656812e-13"
        stroke-width="1" stroke="blue" fill="white"></path>
    <path d="M-1.2363443602225743e-12,-5.755396159656812e-13 L91.35454576425859,40.67366430758006"
        stroke-width="1" stroke="blue" fill="white"></path>
    <path d="M91.35454576425859,40.67366430758006 L80.90169943749274,-58.77852522924723"
        stroke-width="1" stroke="blue" fill="white"></path>
    <path d="M80.90169943749274,-58.77852522924723 L-1.8474111129762605e-12,2.8421709430404007e-13"
        stroke-width="1" stroke="blue" fill="white"></path>
    <path d="M-1.8474111129762605e-12,2.8421709430404007e-13 L97.81476007337875,20.791169081776093"
        stroke-width="1" stroke="blue" fill="white"></path>
    <path d="M97.81476007337875,20.791169081776093 L66.91306063588412,-74.3144825477393"
        stroke-width="1" stroke="blue" fill="white"></path>
    <path d="M66.91306063588412,-74.3144825477393 L-1.9753088054130785e-12,-1.2789769243681803e-13"
        stroke-width="1" stroke="blue" fill="white"></path>
    <path
        d="M-1.9753088054130785e-12,-1.2789769243681803e-13 L99.99999999999802,3.6196102722212327e-13"
        stroke-width="1" stroke="blue" fill="white"></path>
    <path d="M99.99999999999802,3.6196102722212327e-13 L49.999999999998664,-86.60254037844388"
        stroke-width="1" stroke="blue" fill="white"></path>
    <path d="M49.999999999998664,-86.60254037844388 L-2.1813661987835076e-12,-5.115907697472721e-13"
        stroke-width="1" stroke="blue" fill="white"></path>
    <path d="M-2.1813661987835076e-12,-5.115907697472721e-13 L97.81476007337832,-20.79116908177675"
        stroke-width="1" stroke="blue" fill="white"></path>
    <path d="M97.81476007337832,-20.79116908177675 L30.901699437493505,-95.10565162951707"
        stroke-width="1" stroke="blue" fill="white"></path>
    <path
        d="M30.901699437493505,-95.10565162951707 L-1.4068746168049984e-12,-1.7763568394002505e-12"
        stroke-width="1" stroke="blue" fill="white"></path>
    <path d="M-1.4068746168049984e-12,-1.7763568394002505e-12 L91.35454576425822,-40.67366430758282"
        stroke-width="1" stroke="blue" fill="white"></path>
    <path d="M91.35454576425822,-40.67366430758282 L10.45284632676379,-99.45218953683057"
        stroke-width="1" stroke="blue" fill="white"></path>
    <path d="M10.45284632676379,-99.45218953683057 L-9.325873406851315e-13,-3.183231456205249e-12"
        stroke-width="1" stroke="blue" fill="white"></path>
    <path d="M-9.325873406851315e-13,-3.183231456205249e-12 L80.90169943749434,-58.77852522924975"
        stroke-width="1" stroke="blue" fill="white"></path>
    <path d="M80.90169943749434,-58.77852522924975 L-10.452846326765851,-99.45218953682954"
        stroke-width="1" stroke="blue" fill="white"></path>
    <path
        d="M-10.452846326765851,-99.45218953682954 L-1.9060308886764687e-12,-2.0463630789890885e-12"
        stroke-width="1" stroke="blue" fill="white"></path>
    <path d="M-1.9060308886764687e-12,-2.0463630789890885e-12 L66.91306063588401,-74.31448254774139"
        stroke-width="1" stroke="blue" fill="white"></path>
    <path d="M66.91306063588401,-74.31448254774139 L-30.901699437496774,-95.10565162951629"
        stroke-width="1" stroke="blue" fill="white"></path>
    <path d="M-30.901699437496774,-95.10565162951629 L-2.611244553918368e-12,-7.531752999057062e-13"
        stroke-width="1" stroke="blue" fill="white"></path>
    <path d="M-2.611244553918368e-12,-7.531752999057062e-13 L49.99999999999679,-86.60254037844496"
        stroke-width="1" stroke="blue" fill="white"></path>
    <path d="M49.99999999999679,-86.60254037844496 L-50.00000000000321,-86.60254037844594"
        stroke-width="1" stroke="blue" fill="white"></path>
    <path
        d="M-50.00000000000321,-86.60254037844594 L-3.0482283364108298e-12,-2.1600499167107046e-12"
        stroke-width="1" stroke="blue" fill="white"></path>
    <path d="M-3.0482283364108298e-12,-2.1600499167107046e-12 L30.90169943749298,-95.1056516295171"
        stroke-width="1" stroke="blue" fill="white"></path>
    <path d="M30.90169943749298,-95.1056516295171 L-66.91306063588762,-74.31448254774133"
        stroke-width="1" stroke="blue" fill="white"></path>
    <path
        d="M-66.91306063588762,-74.31448254774133 L-1.0516032489249483e-12,-2.5721647034515627e-12"
        stroke-width="1" stroke="blue" fill="white"></path>
    <path d="M-1.0516032489249483e-12,-2.5721647034515627e-12 L10.45284632676484,-99.45218953682985"
        stroke-width="1" stroke="blue" fill="white"></path>
    <path d="M10.45284632676484,-99.45218953682985 L-80.90169943749498,-58.778525229249254"
        stroke-width="1" stroke="blue" fill="white"></path>
    <path
        d="M-80.90169943749498,-58.778525229249254 L-8.526512829121202e-13,-1.0942358130705543e-12"
        stroke-width="1" stroke="blue" fill="white"></path>
    <path d="M-8.526512829121202e-13,-1.0942358130705543e-12 L-10.452846326766453,-99.4521895368284"
        stroke-width="1" stroke="blue" fill="white"></path>
    <path d="M-10.452846326766453,-99.4521895368284 L-91.35454576426201,-40.67366430758223"
        stroke-width="1" stroke="blue" fill="white"></path>
    <path
        d="M-91.35454576426201,-40.67366430758223 L-2.0179413695586845e-12,-1.9895196601282805e-12"
        stroke-width="1" stroke="blue" fill="white"></path>
    <path
        d="M-2.0179413695586845e-12,-1.9895196601282805e-12 L-30.90169943749777,-95.10565162951703"
        stroke-width="1" stroke="blue" fill="white"></path>
    <path d="M-30.90169943749777,-95.10565162951703 L-97.81476007338404,-20.79116908177801"
        stroke-width="1" stroke="blue" fill="white"></path>
    <path d="M-97.81476007338404,-20.79116908177801 L-3.353761712787673e-12,-2.632560835991171e-12"
        stroke-width="1" stroke="blue" fill="white"></path>
    <path d="M-3.353761712787673e-12,-2.632560835991171e-12 L-50.0000000000025,-86.60254037844699"
        stroke-width="1" stroke="blue" fill="white"></path>
    <path d="M-50.0000000000025,-86.60254037844699 L-100.00000000000233,-3.0269120543380268e-12"
        stroke-width="1" stroke="blue" fill="white"></path>
    <path
        d="M-100.00000000000233,-3.0269120543380268e-12 L-2.3305801732931286e-12,-1.5570883031065677e-12"
        stroke-width="1" stroke="blue" fill="white"></path>
</svg>